{forcats} demo by Allison Horst (Bren) | UCSB TidyTuesday
…
# Showing that this lines up with the order if we find the maximum height for each level: 
sw_fct %>% 
  group_by(species) %>% 
  summarize(max_height = max(height)) %>% 
  arrange(max_height)

## `summarise()` ungrouping output (override with `.groups` argument)

## # A tibble: 37 x 2
##    species        max_height
##    <fct>               <int>
##  1 Yoda's species         66
##  2 Aleena                 79
##  3 Ewok                   88
##  4 Vulptereen             94
##  5 Dug                   112
##  6 Xexto                 122
##  7 Toydarian             137
##  8 Sullustan             160
##  9 Toong                 163
## 10 Clawdite              168
## # … with 27 more rows
…
